bellabeats_project_final
…
## -- Conflicts ------------------------------------------ tidyverse_conflicts() --
## x dplyr::filter() masks stats::filter()
## x dplyr::lag()    masks stats::lag()

#install.packages("readxl")
library(readxl)
dailyActivity.33 <-read_excel("C:\\Users\\archi\\OneDrive\\Desktop\\New folder\\dailyActivity.xlsx")
calory_burn_per_day <- read_excel("C:\\Users\\archi\\OneDrive\\Desktop\\New folder\\calory_burn_per_day.xlsx")
Intensity_hour <- read_excel("C:\\Users\\archi\\OneDrive\\Desktop\\New folder\\Intensity_hour.xlsx")
sleep_day.24 <- read_excel("C:\\Users\\archi\\OneDrive\\Desktop\\New folder\\sleep_day.xlsx")
steps_walked_per_day.33 <- read_excel("C:\\Users\\archi\\OneDrive\\Desktop\\New folder\\steps_walked_per_day.xlsx")
steps_walked_per_day.33

## # A tibble: 940 x 3
##            Id ActivityDay StepTotal
##         <dbl> <chr>           <dbl>
##  1 1503960366 42708           13162
##  2 1503960366 4/13/2016       10735
##  3 1503960366 4/14/2016       10460
##  4 1503960366 4/15/2016        9762
##  5 1503960366 4/16/2016       12669
##  6 1503960366 4/17/2016        9705
##  7 1503960366 4/18/2016       13019
##  8 1503960366 4/19/2016       15506
##  9 1503960366 4/20/2016       10544
## 10 1503960366 4/21/2016        9819
## # ... with 930 more rows

now the required data has been imported,

#checking if the data has N/A values,outliers and is consistent or not.

# checking for missing values
steps_walked_per_day.33 %>% count(Id)

## # A tibble: 33 x 2
##            Id     n
##         <dbl> <int>
##  1 1503960366    31
##  2 1624580081    31
##  3 1644430081    30
##  4 1844505072    31
##  5 1927972279    31
##  6 2022484408    31
##  7 2026352035    31
##  8 2320127002    31
##  9 2347167796    18
## 10 2873212765    31
## # ... with 23 more rows

sleep_day.24 %>% count(Id)

## # A tibble: 24 x 2
##            Id     n
##         <dbl> <int>
##  1 1503960366    25
##  2 1644430081     4
##  3 1844505072     3
##  4 1927972279     5
##  5 2026352035    28
##  6 2320127002     1
##  7 2347167796    15
##  8 3977333714    28
##  9 4020332650     8
## 10 4319703577    26
## # ... with 14 more rows

Intensity_hour %>% count(Id)

## # A tibble: 33 x 2
##            Id     n
##         <dbl> <int>
##  1 1503960366   717
##  2 1624580081   736
##  3 1644430081   708
##  4 1844505072   731
##  5 1927972279   736
##  6 2022484408   736
##  7 2026352035   736
##  8 2320127002   735
##  9 2347167796   414
## 10 2873212765   736
## # ... with 23 more rows

dailyActivity.33 %>% count(Id)

## # A tibble: 33 x 2
##            Id     n
##         <dbl> <int>
##  1 1503960366    31
##  2 1624580081    31
##  3 1644430081    30
##  4 1844505072    31
##  5 1927972279    31
##  6 2022484408    31
##  7 2026352035    31
##  8 2320127002    31
##  9 2347167796    18
## 10 2873212765    31
## # ... with 23 more rows

calory_burn_per_day %>% count(Id)

## # A tibble: 33 x 2
##            Id     n
##         <dbl> <int>
##  1 1503960366    31
##  2 1624580081    31
##  3 1644430081    30
##  4 1844505072    31
##  5 1927972279    31
##  6 2022484408    31
##  7 2026352035    31
##  8 2320127002    31
##  9 2347167796    18
## 10 2873212765    31
## # ... with 23 more rows
…
